…
    ## Rows: 3220 Columns: 483
    ## ── Column specification ────────────────────────────────────────────────────────
    ## Delimiter: ","
    ## chr (306): Geography, Geographic Area Name, Annotation of Margin of Error!!N...
    ## dbl (176): Estimate!!Number!!HOUSEHOLD INCOME BY RACE AND HISPANIC OR LATINO...
    ## lgl   (1): ...483
    ## 
    ## ℹ Use `spec()` to retrieve the full column specification for this data.
    ## ℹ Specify the column types or set `show_col_types = FALSE` to quiet this message.

``` r
df_income
```

    ## # A tibble: 3,220 × 243
    ##    id    Geogr…¹ Estim…² Margi…³ Estim…⁴ Margi…⁵ Estim…⁶ Margi…⁷ Estim…⁸ Margi…⁹
    ##    <chr> <chr>     <dbl>   <dbl>   <dbl>   <dbl>   <dbl>   <dbl>   <dbl>   <dbl>
    ##  1 0500… Autaug…   21115     383   16585     363    4085     205      34      33
    ##  2 0500… Baldwi…   78622    1183   69544    1042    6425     500     460     171
    ##  3 0500… Barbou…    9186     280    4729     211    4135     248       9      16
    ##  4 0500… Bibb C…    6840     321    5588     346    1172     200       0      22
    ##  5 0500… Blount…   20600     396   20054     417     190      98      24      27
    ##  6 0500… Bulloc…    3609     196     881     119    2681     212      44      52
    ##  7 0500… Butler…    6708     274    3821     173    2752     207       2       4
    ##  8 0500… Calhou…   45033     683   33820     559    9514     435     152      64
    ##  9 0500… Chambe…   13516     372    7953     296    5268     235      54      42
    ## 10 0500… Cherok…   10606     370    9953     356     477      90      33      32
    ## # … with 3,210 more rows, 233 more variables:
    ## #   `Estimate!!Number!!HOUSEHOLD INCOME BY RACE AND HISPANIC OR LATINO ORIGIN OF HOUSEHOLDER!!Households!!One race--!!Asian` <dbl>,
    ## #   `Margin of Error!!Number MOE!!HOUSEHOLD INCOME BY RACE AND HISPANIC OR LATINO ORIGIN OF HOUSEHOLDER!!Households!!One race--!!Asian` <dbl>,
    ## #   `Estimate!!Number!!HOUSEHOLD INCOME BY RACE AND HISPANIC OR LATINO ORIGIN OF HOUSEHOLDER!!Households!!One race--!!Native Hawaiian and Other Pacific Islander` <dbl>,
    ## #   `Margin of Error!!Number MOE!!HOUSEHOLD INCOME BY RACE AND HISPANIC OR LATINO ORIGIN OF HOUSEHOLDER!!Households!!One race--!!Native Hawaiian and Other Pacific Islander` <dbl>,
    ## #   `Estimate!!Number!!HOUSEHOLD INCOME BY RACE AND HISPANIC OR LATINO ORIGIN OF HOUSEHOLDER!!Households!!One race--!!Some other race` <dbl>,
    ## #   `Margin of Error!!Number MOE!!HOUSEHOLD INCOME BY RACE AND HISPANIC OR LATINO ORIGIN OF HOUSEHOLDER!!Households!!One race--!!Some other race` <dbl>, …
…
    ## Warning in mask$eval_all_mutate(quo): NAs introduced by coercion

    ## Warning in mask$eval_all_mutate(quo): NAs introduced by coercion

    ## Warning in mask$eval_all_mutate(quo): NAs introduced by coercion

    ## Warning in mask$eval_all_mutate(quo): NAs introduced by coercion

    ## Warning in mask$eval_all_mutate(quo): NAs introduced by coercion

``` r
df_q3
```

    ## # A tibble: 16,100 × 5
    ##    id             geographic_area_name    category          income_est…¹ incom…²
    ##    <chr>          <chr>                   <chr>                    <dbl>   <dbl>
    ##  1 0500000US01001 Autauga County, Alabama 2-person families        64947    6663
    ##  2 0500000US01001 Autauga County, Alabama 3-person families        80172   14181
    ##  3 0500000US01001 Autauga County, Alabama 4-person families        85455   10692
    ##  4 0500000US01001 Autauga County, Alabama 5-person families        88601   20739
    ##  5 0500000US01001 Autauga County, Alabama 6-person families       103787   12387
    ##  6 0500000US01003 Baldwin County, Alabama 2-person families        63975    2297
    ##  7 0500000US01003 Baldwin County, Alabama 3-person families        79390    8851
    ##  8 0500000US01003 Baldwin County, Alabama 4-person families        88458    5199
    ##  9 0500000US01003 Baldwin County, Alabama 5-person families        91259    7011
    ## 10 0500000US01003 Baldwin County, Alabama 6-person families        69609   23175
    ## # … with 16,090 more rows, and abbreviated variable names ¹​income_estimate,
    ## #   ²​income_moe
…
$$\text{MOE} = 1.645 \times \text{SE}.$$

### **q4** Convert the margin of error to standard error. Additionally, compute a 99% confidence interval on income, and normalize the standard error to `income_CV = income_SE / income_estimate`. Provide these columns with the names `income_SE, income_lo, income_hi, income_CV`.

``` r
df_q4 <- df_q3 %>% 
  mutate(income_SE = income_moe/1.645) %>% 
  mutate(income_lo = income_estimate - income_SE*2.576) %>% # Multiply by z value
  mutate(income_hi = income_estimate + income_SE*2.576) %>% 
  mutate(income_CV = income_SE/income_estimate)

df_q4
```

    ## # A tibble: 16,100 × 9
    ##    id            geogr…¹ categ…² incom…³ incom…⁴ incom…⁵ incom…⁶ incom…⁷ incom…⁸
    ##    <chr>         <chr>   <chr>     <dbl>   <dbl>   <dbl>   <dbl>   <dbl>   <dbl>
    ##  1 0500000US010… Autaug… 2-pers…   64947    6663   4050.  54513.  75381.  0.0624
    ##  2 0500000US010… Autaug… 3-pers…   80172   14181   8621.  57965. 102379.  0.108 
    ##  3 0500000US010… Autaug… 4-pers…   85455   10692   6500.  68712. 102198.  0.0761
    ##  4 0500000US010… Autaug… 5-pers…   88601   20739  12607.  56125. 121077.  0.142 
    ##  5 0500000US010… Autaug… 6-pers…  103787   12387   7530.  84389. 123185.  0.0726
    ##  6 0500000US010… Baldwi… 2-pers…   63975    2297   1396.  60378.  67572.  0.0218
    ##  7 0500000US010… Baldwi… 3-pers…   79390    8851   5381.  65530.  93250.  0.0678
    ##  8 0500000US010… Baldwi… 4-pers…   88458    5199   3160.  80317.  96599.  0.0357
    ##  9 0500000US010… Baldwi… 5-pers…   91259    7011   4262.  80280. 102238.  0.0467
    ## 10 0500000US010… Baldwi… 6-pers…   69609   23175  14088.  33318. 105900.  0.202 
    ## # … with 16,090 more rows, and abbreviated variable names
    ## #   ¹​geographic_area_name, ²​category, ³​income_estimate, ⁴​income_moe,
    ## #   ⁵​income_SE, ⁶​income_lo, ⁷​income_hi, ⁸​income_CV
…
df_data
```

    ## # A tibble: 16,100 × 14
    ##    id    geogr…¹ categ…² incom…³ incom…⁴ incom…⁵ incom…⁶ incom…⁷ incom…⁸ popul…⁹
    ##    <chr> <chr>   <chr>     <dbl>   <dbl>   <dbl>   <dbl>   <dbl>   <dbl>   <dbl>
    ##  1 0500… Autaug… 2-pers…   64947    6663   4050.  54513.  75381.  0.0624   55200
    ##  2 0500… Autaug… 3-pers…   80172   14181   8621.  57965. 102379.  0.108    55200
    ##  3 0500… Autaug… 4-pers…   85455   10692   6500.  68712. 102198.  0.0761   55200
    ##  4 0500… Autaug… 5-pers…   88601   20739  12607.  56125. 121077.  0.142    55200
    ##  5 0500… Autaug… 6-pers…  103787   12387   7530.  84389. 123185.  0.0726   55200
    ##  6 0500… Baldwi… 2-pers…   63975    2297   1396.  60378.  67572.  0.0218  208107
    ##  7 0500… Baldwi… 3-pers…   79390    8851   5381.  65530.  93250.  0.0678  208107
    ##  8 0500… Baldwi… 4-pers…   88458    5199   3160.  80317.  96599.  0.0357  208107
    ##  9 0500… Baldwi… 5-pers…   91259    7011   4262.  80280. 102238.  0.0467  208107
    ## 10 0500… Baldwi… 6-pers…   69609   23175  14088.  33318. 105900.  0.202   208107
    ## # … with 16,090 more rows, 4 more variables: population_moe <chr>, X5 <chr>,
    ## #   X6 <chr>, X7 <lgl>, and abbreviated variable names ¹​geographic_area_name,
    ## #   ²​category, ³​income_estimate, ⁴​income_moe, ⁵​income_SE, ⁶​income_lo,
    ## #   ⁷​income_hi, ⁸​income_CV, ⁹​population_estimate
…
